{
  "id": "bf80e568-c2f0-4dc6-bf6d-499783e80b81",
  "name": "AU Local",
  "values": [
    {
      "key": "baseUrl",
      "value": "",
      "description": "",
      "enabled": true
    },
    {
      "key": "apiSlug",
      "value": "",
      "description": "",
      "enabled": true
    }
  ],
  "_postman_variable_scope": "environment",
  "_postman_exported_at": "2019-08-20T09:42:21.046Z",
  "_postman_exported_using": "Postman/6.2.3"
}